Open data for urban research
…
---
## Pivot

```
## # A tibble: 35,496 x 51
##    CodeInsee CodeDepartement Département Commune Inscrits Abstentions
##    <chr>     <chr>           <chr>       <chr>      <int>       <int>
##  1 01001     01              Ain         L'Aber…      598          92
##  2 01002     01              Ain         L'Aber…      209          25
##  3 01004     01              Ain         Ambéri…     8586        1962
##  4 01005     01              Ain         Ambéri…     1172         215
##  5 01006     01              Ain         Ambléon       99          20
##  6 01007     01              Ain         Ambron…     1880         268
##  7 01008     01              Ain         Ambutr…      581          91
##  8 01009     01              Ain         Andert…      254          41
##  9 01010     01              Ain         Anglef…      738         136
## 10 01011     01              Ain         Apremo…      275          43
## # ... with 35,486 more rows, and 45 more variables: Abstentions_ins <dbl>,
## #   Votants <int>, Votants_ins <dbl>, Blancs <int>, Blancs_ins <dbl>,
## #   Blancs_vot <dbl>, Nuls <int>, Nuls_ins <dbl>, Nuls_vot <dbl>,
## #   Exprimés <int>, Exprimés_ins <dbl>, Exprimés_vot <dbl>, `LE
## #   PEN` <int>, MÉLENCHON <int>, MACRON <int>, FILLON <int>,
## #   LASSALLE <int>, `DUPONT-AIGNAN` <int>, HAMON <int>, ASSELINEAU <int>,
## #   POUTOU <int>, ARTHAUD <int>, CHEMINADE <int>, `LE PEN_ins` <dbl>,
## #   MÉLENCHON_ins <dbl>, MACRON_ins <dbl>, FILLON_ins <dbl>,
## #   LASSALLE_ins <dbl>, `DUPONT-AIGNAN_ins` <dbl>, HAMON_ins <dbl>,
…
---
## Pivot

```r
library(tidyverse)
pres2017T1_communes_long <- pres2017T1_communes %>% 
  select(- contains("_ins")) %>%
  select(- contains("_exp")) %>%   
  gather(candidat, voix, `LE PEN`:CHEMINADE)

pres2017T1_communes_long
```

```
## # A tibble: 390,456 x 15
##    CodeInsee CodeDepartement Département Commune Inscrits Abstentions
##    <chr>     <chr>           <chr>       <chr>      <int>       <int>
##  1 01001     01              Ain         L'Aber…      598          92
##  2 01002     01              Ain         L'Aber…      209          25
##  3 01004     01              Ain         Ambéri…     8586        1962
##  4 01005     01              Ain         Ambéri…     1172         215
##  5 01006     01              Ain         Ambléon       99          20
##  6 01007     01              Ain         Ambron…     1880         268
##  7 01008     01              Ain         Ambutr…      581          91
##  8 01009     01              Ain         Andert…      254          41
##  9 01010     01              Ain         Anglef…      738         136
## 10 01011     01              Ain         Apremo…      275          43
## # ... with 390,446 more rows, and 9 more variables: Votants <int>,
## #   Blancs <int>, Blancs_vot <dbl>, Nuls <int>, Nuls_vot <dbl>,
## #   Exprimés <int>, Exprimés_vot <dbl>, candidat <chr>, voix <int>
```

---
## Modify

```r
pres2017T1_communes_long <- pres2017T1_communes_long %>% 
  mutate(ins = voix / Inscrits * 100) %>% 
  mutate(exp = voix / Exprimés * 100) %>%
  print
```

```
## # A tibble: 390,456 x 17
##    CodeInsee CodeDepartement Département Commune Inscrits Abstentions
##    <chr>     <chr>           <chr>       <chr>      <int>       <int>
##  1 01001     01              Ain         L'Aber…      598          92
##  2 01002     01              Ain         L'Aber…      209          25
##  3 01004     01              Ain         Ambéri…     8586        1962
##  4 01005     01              Ain         Ambéri…     1172         215
##  5 01006     01              Ain         Ambléon       99          20
##  6 01007     01              Ain         Ambron…     1880         268
##  7 01008     01              Ain         Ambutr…      581          91
##  8 01009     01              Ain         Andert…      254          41
##  9 01010     01              Ain         Anglef…      738         136
## 10 01011     01              Ain         Apremo…      275          43
## # ... with 390,446 more rows, and 11 more variables: Votants <int>,
## #   Blancs <int>, Blancs_vot <dbl>, Nuls <int>, Nuls_vot <dbl>,
## #   Exprimés <int>, Exprimés_vot <dbl>, candidat <chr>, voix <int>,
## #   ins <dbl>, exp <dbl>
```
…
